992
-8 976
8 -8 960
-8 -8 960
-8 -16 952
8 -8 -8 -16 920
-8 8 -8 -16 920
992
-48 -8 -56 56 -8 -72 -24 664
-16 224 -152 -144 424
160 -48 768
-88 56 -8 -64 -40 -88 -16 576
992
992
56 -32 -128 240 -80 416
992
992
16 -96 200 -8 104 -80 440
